{
    "name": "rule-element-generator",
    "title": "PF2E Rule Element Generator",
    "description": "An easy way to generate rule elements for the Pathfinder 2e system.",
    "author": "Bolt",
    "version": "1.5.1",
    "minimumCoreVersion": "0.8.6",
    "compatibleCoreVersion": "0.8.9",
    "system": ["pf2e"],
    "minimumSystemVersion": "2.10.1",
    "esmodules": ["./index.js"],
    "languages": [
        {
            "lang": "en",
            "name": "English",
            "path": "lang/en.json"
        }
    ],
    "url": "https://gitlab.com/pearcebasmanm/rule-element-generator",
    "manifest": "https://gitlab.com/pearcebasmanm/rule-element-generator/-/raw/main/module.json",
    "download": "https://gitlab.com/pearcebasmanm/rule-element-generator/-/archive/v1.5.1/rule-element-generator-v1.5.1.zip",
    "bugs": "https://gitlab.com/pearcebasmanm/rule-element-generator/-/issues",
    "flags": {
        "allowBugReporter": true
    }
}
